FP,equals,similar only first few lines,jfreechart/src/main/java/org/jfree/chart/block/FlowArrangement.java,251,272,jfreechart/src/main/java/org/jfree/chart/plot/MeterInterval.java,85,109
FP,equals,similar only first few lines,jfreechart/src/main/java/org/jfree/chart/block/ColumnArrangement.java,220,241,jfreechart/src/main/java/org/jfree/chart/urls/StandardCategoryURLGenerator.java,83,104
TP,equals,type-2 clones,jfreechart/src/main/java/org/jfree/chart/urls/StandardPieURLGenerator.java,77,95,jfreechart/src/main/java/org/jfree/chart/renderer/xy/GradientXYBarPainter.java,225,243
TP,equals,type-2 clones,jfreechart/src/main/java/org/jfree/chart/renderer/xy/GradientXYBarPainter.java,225,243,jfreechart/src/main/java/org/jfree/data/time/TimePeriodValuesCollection.java,242,260
TP,equals,type-3 clones,jfreechart/src/main/java/org/jfree/chart/block/FlowArrangement.java,251,272,jfreechart/src/main/java/org/jfree/chart/util/DefaultShadowGenerator.java,123,147
TP,equals,type-2 clones,jfreechart/src/main/java/org/jfree/chart/plot/CombinedDomainCategoryPlot.java,409,424,jfreechart/src/main/java/org/jfree/chart/title/CompositeTitle.java,99,114
TP,equals,type-2 clones,jfreechart/src/main/java/org/jfree/chart/plot/CombinedDomainCategoryPlot.java,169,190,jfreechart/src/main/java/org/jfree/chart/entity/PieSectionEntity.java,88,109
TP,equals,type-2 clones,jfreechart/src/main/java/org/jfree/data/xy/DefaultWindDataset.java,149,164,jfreechart/src/main/java/org/jfree/chart/title/CompositeTitle.java,99,114
FP,equals,similar only first few lines,jfreechart/src/main/java/org/jfree/chart/entity/XYAnnotationEntity.java,37,52,jfreechart/src/main/java/org/jfree/data/KeyToGroupMap.java,130,145
TP,equals,type-2 clones,jfreechart/src/main/java/org/jfree/chart/axis/CategoryLabelPositions.java,237,260,jfreechart/src/main/java/org/jfree/chart/labels/ItemLabelPosition.java,75,96
TP,equals,type-3 clones,jfreechart/src/main/java/org/jfree/data/KeyToGroupMap.java,130,145,jfreechart/src/main/java/org/jfree/chart/urls/StandardXYURLGenerator.java,69,89
TP,equals,type-2 clones,jfreechart/src/main/java/org/jfree/chart/renderer/xy/XYSplineRenderer.java,242,261,jfreechart/src/main/java/org/jfree/chart/ChartRenderingInfo.java,81,99
TP,equals,type-3 clones,jfreechart/src/main/java/org/jfree/chart/labels/HighLowItemLabelGenerator.java,107,122,jfreechart/src/main/java/org/jfree/data/time/TimePeriodAnchor.java,42,57
TP,equals,type-3 clones,jfreechart/src/main/java/org/jfree/chart/renderer/xy/GradientXYBarPainter.java,225,243,jfreechart/src/main/java/org/jfree/data/time/Millisecond.java,157,181
TP,validateTickUnit,type-3 clones ***,jfreechart/src/main/java/org/jfree/chart/editor/DefaultLogAxisEditor.java,59,70,jfreechart/src/main/java/org/jfree/chart/editor/DefaultPolarPlotEditor.java,78,87
TP,equals,type-2 clones,jfreechart/src/main/java/org/jfree/chart/renderer/xy/StackedXYAreaRenderer.java,382,397,jfreechart/src/main/java/org/jfree/data/time/SimpleTimePeriod.java,58,73
TP,equals,type-2 clones,jfreechart/src/main/java/org/jfree/data/gantt/TaskSeriesCollection.java,392,404,jfreechart/src/main/java/org/jfree/chart/labels/StandardPieSectionLabelGenerator.java,88,101
TP,equals,type-3 clones,jfreechart/src/main/java/org/jfree/data/xy/Vector.java,44,59,jfreechart/src/main/java/org/jfree/chart/labels/AbstractCategoryItemLabelGenerator.java,133,153
TP,equals,type-2 clones,jfreechart/src/main/java/org/jfree/chart/renderer/xy/XYStepAreaRenderer.java,325,352,jfreechart/src/main/java/org/jfree/chart/axis/ColorBar.java,270,297
TP,equals,type-3 clones,jfreechart/src/main/java/org/jfree/chart/labels/MultipleXYSeriesLabelGenerator.java,118,138,jfreechart/src/main/java/org/jfree/data/time/Week.java,224,241
TP,equals,type-2 clones,jfreechart/src/main/java/org/jfree/data/statistics/MeanAndStandardDeviation.java,62,79,jfreechart/src/main/java/org/jfree/chart/plot/CombinedRangeXYPlot.java,436,451
TP,equals,type-2 clones,jfreechart/src/main/java/org/jfree/data/time/TimeSeriesDataItem.java,50,65,jfreechart/src/main/java/org/jfree/data/DefaultKeyedValue.java,49,66
TP,equals,type-3 clones,jfreechart/src/main/java/org/jfree/chart/labels/MultipleXYSeriesLabelGenerator.java,118,138,jfreechart/src/main/java/org/jfree/chart/renderer/LookupPaintScale.java,58,73
TP,equals,type-3 clones,jfreechart/src/main/java/org/jfree/data/time/TimeSeriesCollection.java,420,438,jfreechart/src/main/java/org/jfree/chart/renderer/LookupPaintScale.java,201,222
TP,equals,type-3 clones,jfreechart/src/main/java/org/jfree/chart/axis/DateAxis.java,1242,1271,jfreechart/src/main/java/org/jfree/chart/block/BorderArrangement.java,382,406
TP,equals,type-2 clones,jfreechart/src/main/java/org/jfree/chart/util/DefaultShadowGenerator.java,123,147,jfreechart/src/main/java/org/jfree/data/time/Millisecond.java,157,181
TP,equals,type-3 clones,jfreechart/src/main/java/org/jfree/data/general/DefaultKeyedValueDataset.java,72,93,jfreechart/src/main/java/org/jfree/chart/labels/AbstractCategoryItemLabelGenerator.java,133,153
TP,equals,type-3 clones,jfreechart/src/main/java/org/jfree/chart/urls/StandardPieURLGenerator.java,77,95,jfreechart/src/main/java/org/jfree/chart/renderer/LookupPaintScale.java,58,73
TP,equals,type-2 clones,jfreechart/src/main/java/org/jfree/chart/annotations/XYTextAnnotation.java,197,242,jfreechart/src/main/java/org/jfree/chart/renderer/xy/XYBarRenderer.java,702,753
TP,equals,type-3 clones,jfreechart/src/main/java/org/jfree/chart/plot/dial/DialCap.java,83,104,jfreechart/src/main/java/org/jfree/data/general/DefaultKeyedValueDataset.java,72,93
TP,equals,type-3 clones,jfreechart/src/main/java/org/jfree/chart/axis/NumberAxis.java,702,727,jfreechart/src/main/java/org/jfree/chart/renderer/category/BarRenderer3D.java,559,577
FP,equals,similar only first few lines,jfreechart/src/main/java/org/jfree/chart/entity/TitleEntity.java,37,58,jfreechart/src/main/java/org/jfree/data/category/SlidingCategoryDataset.java,158,176
TP,equals,type-2 clones,jfreechart/src/main/java/org/jfree/data/statistics/MeanAndStandardDeviation.java,62,79,jfreechart/src/main/java/org/jfree/data/xy/XYCoordinate.java,39,54
FP,equals,similar only first few lines,jfreechart/src/main/java/org/jfree/chart/renderer/xy/XYAreaRenderer.java,336,366,jfreechart/src/main/java/org/jfree/chart/plot/ColorPalette.java,235,279
FP,equals,similar only first few lines,jfreechart/src/main/java/org/jfree/chart/axis/SymbolAxis.java,466,488,jfreechart/src/main/java/org/jfree/data/time/ohlc/OHLC.java,53,74
FP,equals,similar only first few lines,jfreechart/src/main/java/org/jfree/chart/labels/BubbleXYItemLabelGenerator.java,123,141,jfreechart/src/main/java/org/jfree/chart/renderer/xy/XYDotRenderer.java,181,199
TP,equals,type-2 clones,jfreechart/src/main/java/org/jfree/chart/labels/MultipleXYSeriesLabelGenerator.java,118,138,jfreechart/src/main/java/org/jfree/chart/axis/ModuloAxis.java,236,254
FP,equals,similar only first few lines,jfreechart/src/main/java/org/jfree/chart/plot/dial/StandardDialRange.java,126,153,jfreechart/src/main/java/org/jfree/chart/plot/PieLabelRecord.java,127,160
TP,equals,type-3 clones,jfreechart/src/main/java/org/jfree/chart/labels/StandardXYSeriesLabelGenerator.java,62,75,jfreechart/src/main/java/org/jfree/chart/annotations/AbstractXYAnnotation.java,52,67
FP,equals,similar only first few lines,jfreechart/src/main/java/org/jfree/data/xy/Vector.java,44,59,jfreechart/src/main/java/org/jfree/data/xy/DefaultTableXYDataset.java,283,304
TP,equals,type-2 clones,jfreechart/src/main/java/org/jfree/chart/renderer/xy/DeviationRenderer.java,208,220,jfreechart/src/main/java/org/jfree/chart/renderer/xy/StackedXYAreaRenderer2.java,353,365
TP,equals,type-3 clones,jfreechart/src/main/java/org/jfree/chart/renderer/xy/XYDotRenderer.java,181,199,jfreechart/src/main/java/org/jfree/chart/plot/CombinedRangeXYPlot.java,436,451
TP,equals,type-3 clones,jfreechart/src/main/java/org/jfree/chart/renderer/category/MinMaxCategoryRenderer.java,238,256,jfreechart/src/main/java/org/jfree/chart/axis/ValueTick.java,48,63
FP,equals,not clones,jfreechart/src/main/java/org/jfree/data/KeyedObject.java,56,75,jfreechart/src/main/java/org/jfree/data/statistics/HistogramType.java,42,63
TP,equals,type-3 clones,jfreechart/src/main/java/org/jfree/chart/entity/PlotEntity.java,37,58,jfreechart/src/main/java/org/jfree/data/gantt/SlidingGanttCategoryDataset.java,300,318
TP,equals,type-2 clones,jfreechart/src/main/java/org/jfree/chart/entity/LegendItemEntity.java,64,82,jfreechart/src/main/java/org/jfree/chart/renderer/xy/XYLine3DRenderer.java,128,146
TP,equals,type-2 clones,jfreechart/src/main/java/org/jfree/chart/urls/StandardPieURLGenerator.java,77,95,jfreechart/src/main/java/org/jfree/data/xy/IntervalXYDelegate.java,208,226
TP,equals,type-3 clones,jfreechart/src/main/java/org/jfree/chart/renderer/xy/GradientXYBarPainter.java,225,243,jfreechart/src/main/java/org/jfree/chart/plot/CombinedDomainCategoryPlot.java,409,424
FP,equals,similar only first few lines,jfreechart/src/main/java/org/jfree/chart/renderer/GrayPaintScale.java,80,98,jfreechart/src/main/java/org/jfree/data/DefaultKeyedValue.java,49,66
TP,equals,type-3 clones,jfreechart/src/main/java/org/jfree/chart/renderer/LookupPaintScale.java,58,73,jfreechart/src/main/java/org/jfree/chart/labels/AbstractCategoryItemLabelGenerator.java,133,153