nicad1,start,end,nicad2,start,end,vincent1,start,end,vincent2,start,end
TP,junit4/src/main/java/org/junit/experimental/theories/Theories.java,28,41,junit4/src/main/java/org/junit/experimental/theories/Theories.java,42,55,junit4/src/main/java/org/junit/experimental/theories/Theories.java,42,55,junit4/src/main/java/org/junit/experimental/theories/Theories.java,28,41
TP,junit4/src/main/java/org/junit/runners/parameterized/TestWithParameters.java,36,50,junit4/src/main/java/org/junit/runners/model/TestClass.java,194,206,junit4/src/main/java/org/junit/runners/parameterized/TestWithParameters.java,35,50,junit4/src/main/java/org/junit/runners/model/TestClass.java,193,206
TP,junit4/src/main/java/org/junit/internal/TextListener.java,61,72,junit4/src/main/java/junit/textui/ResultPrinter.java,60,73,junit4/src/main/java/org/junit/internal/TextListener.java,61,72,junit4/src/main/java/junit/textui/ResultPrinter.java,60,73
TP,junit4/src/main/java/org/junit/experimental/theories/internal/SpecificDataPointsSupplier.java,18,29,junit4/src/main/java/org/junit/experimental/theories/internal/SpecificDataPointsSupplier.java,44,55,junit4/src/main/java/org/junit/experimental/theories/internal/SpecificDataPointsSupplier.java,17,29,junit4/src/main/java/org/junit/experimental/theories/internal/SpecificDataPointsSupplier.java,43,55
TP,junit4/src/main/java/org/junit/experimental/theories/internal/SpecificDataPointsSupplier.java,31,42,junit4/src/main/java/org/junit/experimental/theories/internal/SpecificDataPointsSupplier.java,57,68,junit4/src/main/java/org/junit/experimental/theories/internal/SpecificDataPointsSupplier.java,30,42,junit4/src/main/java/org/junit/experimental/theories/internal/SpecificDataPointsSupplier.java,56,68